traitstrap-workflow • traitstrap
…
Let us have a look at these datasets in an example.

The community data should have information the
abundance of species in the community. This dataset will be used to
weigh the traits by species abundance. Note that abundance can also be
cover, size, biomass, or something similar.

In this example the contains species names
(e.g. Taxon), cover of each species per plot
(e.g. Cover) and two columns with information about the
hierarchy (i.e. Site and
PlotID).

#> # A tibble: 110 × 4
#>    Taxon             Cover Site  PlotID
#>    <chr>             <dbl> <chr> <chr> 
#>  1 alopecurus ovatus   0.5 1     B     
#>  2 alopecurus ovatus   1   1     C     
#>  3 alopecurus ovatus   1   1     D     
#>  4 alopecurus ovatus   2   1     F     
#>  5 alopecurus ovatus   0.1 1     G     
#>  6 bistorta vigdis    10   1     A     
#>  7 bistorta vigdis    25   1     B     
#>  8 bistorta vigdis    10   1     C     
#>  9 bistorta vigdis     2   1     D     
#> 10 bistorta vigdis     1   1     F     
#> # … with 100 more rows

The trait data should contain information about
traits and trait values for as many species and individuals in the
community data as possible. The data should be organized in the same way
as the community data and should have corresponding columns. In this
example the trait data contains Taxon,
Site and PlotID as well as
Trait and Value.

#> # A tibble: 705 × 6
#>    Site  PlotID Taxon                   ID      Trait              Value
#>    <chr> <chr>  <chr>                   <chr>   <chr>              <dbl>
#>  1 1     A      saxifraga oppositifolia ANF4320 Plant_Height_cm 2       
#>  2 1     A      saxifraga oppositifolia ANF4320 Wet_Mass_g      0.000695
#>  3 1     A      saxifraga oppositifolia ANF4320 Thickness_mm    0.127   
#>  4 1     C      bistorta vigdis         ARQ4344 Plant_Height_cm 4.2     
#>  5 1     C      bistorta vigdis         ARQ4344 Wet_Mass_g      0.0105  
#>  6 1     C      bistorta vigdis         ARQ4344 Thickness_mm    0.154   
#>  7 2     C      festuca rubra           AMT1545 Plant_Height_cm 7       
#>  8 2     C      festuca rubra           AMT1545 Wet_Mass_g      0.00724 
#>  9 2     C      festuca rubra           AMT1545 Thickness_mm    0.257   
#> 10 1     C      bistorta vigdis         ARP2422 Plant_Height_cm 1       
#> # … with 695 more rows
…
  # specifies columns in your data (mandatory)
  abundance_col = "Cover",
  taxon_col = "Taxon",
  trait_col = "Trait",
  value_col = "Value",

  # specifies sampling hierarchy
  scale_hierarchy = c("Site", "PlotID"),

  # min number of samples
  min_n_in_sample = 9
)

trait_filling
#> # A tibble: 4,011 × 13
#> # Groups:   global, Site, PlotID, Trait [42]
#>    Taxon     Cover Site  PlotID global sum_a…¹ ID    Trait Value n_sam…²  weight
#>    <chr>     <dbl> <chr> <chr>  <chr>    <dbl> <chr> <chr> <dbl>   <int>   <dbl>
#>  1 dryas oc…   0.1 1     A      global    38.2 ATC4… Plan…   1.3      17 0.00588
#>  2 dryas oc…   0.1 1     A      global    38.2 ADC9… Plan…   1.4      17 0.00588
#>  3 dryas oc…   0.1 1     A      global    38.2 AVU2… Plan…   1.5      17 0.00588
#>  4 dryas oc…   0.1 1     A      global    38.2 AHU1… Plan…   2        17 0.00588
#>  5 dryas oc…   0.1 1     A      global    38.2 AHS4… Plan…   2.5      17 0.00588
#>  6 dryas oc…   0.1 1     A      global    38.2 AHR0… Plan…   2.4      17 0.00588
#>  7 dryas oc…   0.1 1     A      global    38.2 ABE6… Plan…   0.6      17 0.00588
#>  8 dryas oc…   0.1 1     A      global    38.2 BUP1… Plan…   2.2      17 0.00588
#>  9 dryas oc…   0.1 1     A      global    38.2 ADE9… Plan…   1        17 0.00588
#> 10 dryas oc…   0.1 1     A      global    38.2 ACH6… Plan…   3        17 0.00588
#> # … with 4,001 more rows, 2 more variables: level <ord>, max_n_in_sample <int>,
#> #   and abbreviated variable names ¹​sum_abun, ²​n_sample
…
This function also allows to extract raw distributions by setting the
argument raw = TRUE. The raw data can be useful for
visualizing the trait distributions. If the raw data is extracted,
nrep is forced to 1 to avoid memory issues.

# run nonparametric bootstrapping
np_bootstrapped_moments <- trait_np_bootstrap(
  trait_filling,
  nrep = 200
)

np_bootstrapped_moments
#> # A tibble: 8,400 × 8
#> # Groups:   global, Site, PlotID [14]
#>    global Site  PlotID Trait             mean  variance skewness kurtosis
#>    <chr>  <chr> <chr>  <chr>            <dbl>     <dbl>    <dbl>    <dbl>
#>  1 global 1     A      Plant_Height_cm 1.5    2.52        3.25     12.3  
#>  2 global 1     A      Thickness_mm    0.221  0.00377     1.19      1.55 
#>  3 global 1     A      Wet_Mass_g      0.0111 0.0000567   0.554    -1.07 
#>  4 global 1     B      Plant_Height_cm 1.53   2.49        3.13     11.8  
#>  5 global 1     B      Thickness_mm    0.198  0.00164    -0.0175   -0.602
#>  6 global 1     B      Wet_Mass_g      0.0117 0.0000465   0.537    -1.04 
#>  7 global 1     C      Plant_Height_cm 1.68   4.18        2.82      7.85 
#>  8 global 1     C      Thickness_mm    0.207  0.00305     2.28     12.3  
#>  9 global 1     C      Wet_Mass_g      0.0121 0.000117    3.90     21.7  
#> 10 global 1     D      Plant_Height_cm 1.75   5.18        3.14     11.3  
#> # … with 8,390 more rows
…
The confidence interval can be calculated parametrically, using the
mean and standard deviation, or nonparametrically using quantiles. The
default is using the mean and standard deviation
(parametric = TRUE) with one standard deviation around each
trait moment (sd_mult = 1). For the nonparametric approach
the default is a 0.95 confidence level.

# summarizes bootstrapping output
sum_boot_moment <- trait_summarise_boot_moments(
  np_bootstrapped_moments
)

sum_boot_moment
#> # A tibble: 42 × 17
#> # Groups:   global, Site, PlotID [14]
#>    global Site  PlotID Trait            n   mean ci_lo…¹ ci_hi…²     var ci_lo…³
#>    <chr>  <chr> <chr>  <chr>        <int>  <dbl>   <dbl>   <dbl>   <dbl>   <dbl>
#>  1 global 1     A      Plant_Heigh…   200 1.62    1.49    1.75   3.24e+0 2.44e+0
#>  2 global 1     A      Thickness_mm   200 0.214   0.209   0.218  3.46e-3 2.95e-3
#>  3 global 1     A      Wet_Mass_g     200 0.0109  0.0104  0.0113 4.85e-5 4.46e-5
#>  4 global 1     B      Plant_Heigh…   200 1.61    1.49    1.73   3.09e+0 2.36e+0
#>  5 global 1     B      Thickness_mm   200 0.203   0.200   0.206  1.68e-3 1.54e-3
#>  6 global 1     B      Wet_Mass_g     200 0.0122  0.0117  0.0127 4.61e-5 4.29e-5
#>  7 global 1     C      Plant_Heigh…   200 1.69    1.55    1.84   3.93e+0 3.01e+0
#>  8 global 1     C      Thickness_mm   200 0.205   0.201   0.209  2.80e-3 2.02e-3
#>  9 global 1     C      Wet_Mass_g     200 0.0117  0.0110  0.0124 1.11e-4 4.90e-5
#> 10 global 1     D      Plant_Heigh…   200 1.83    1.65    2.01   5.82e+0 4.59e+0
#> # … with 32 more rows, 7 more variables: ci_high_var <dbl>, skew <dbl>,
#> #   ci_low_skew <dbl>, ci_high_skew <dbl>, kurt <dbl>, ci_low_kurt <dbl>,
#> #   ci_high_kurt <dbl>, and abbreviated variable names ¹​ci_low_mean,
#> #   ²​ci_high_mean, ³​ci_low_var
…
fitted_distributions
#> # A tibble: 303 × 15
#> # Groups:   global, Site, PlotID, Trait, Taxon, Cover, n_sample [303]
#>    global Site  PlotID Trait      Taxon Cover n_sam…¹ distr…²  parm1 parm2 sd1  
#>    <chr>  <chr> <chr>  <chr>      <chr> <dbl>   <int> <chr>    <dbl> <dbl> <lgl>
#>  1 global 1     A      Plant_Hei… bist…  10        17 lognor…  0.156 0.587 NA   
#>  2 global 1     A      Plant_Hei… drya…   0.1      17 lognor…  0.434 0.810 NA   
#>  3 global 1     A      Plant_Hei… fest…   1        11 lognor…  1.61  0.377 NA   
#>  4 global 1     A      Plant_Hei… luzu…   0.5      10 lognor…  1.45  0.287 NA   
#>  5 global 1     A      Plant_Hei… luzu…   1        14 lognor…  0.405 0.501 NA   
#>  6 global 1     A      Plant_Hei… sali…  20        22 lognor… -0.320 1.08  NA   
#>  7 global 1     A      Plant_Hei… saxi…   2         6 lognor…  1.13  0.469 NA   
#>  8 global 1     A      Plant_Hei… saxi…   2         2 lognor…  0.693 0     NA   
#>  9 global 1     A      Plant_Hei… sile…   1         3 lognor… -0.221 0.277 NA   
#> 10 global 1     A      Thickness… bist…  10        17 lognor… -1.55  0.194 NA   
#> # … with 293 more rows, 4 more variables: sd2 <lgl>, ks <dbl>, cvm <dbl>,
#> #   ad <dbl>, and abbreviated variable names ¹​n_sample, ²​distribution_type
…
As with trait_np_bootstrap(), the number of samples per
replicated draw are specified with the parameter
sample_size, and the number of replicated draws is
specified by the parameter nrep. The argument
raw allows to extract raw distributions (see above).

# run parametric bootstrapping
p_bootstrapped_moments <- trait_parametric_bootstrap(
  fitted_distributions = fitted_distributions,
  nrep = 200
)

p_bootstrapped_moments
#> # A tibble: 8,400 × 8
#> # Groups:   global, Site, PlotID, Trait [42]
#>    global Site  PlotID Trait             mean  variance skewness kurtosis
#>    <chr>  <chr> <chr>  <chr>            <dbl>     <dbl>    <dbl>    <dbl>
#>  1 global 1     A      Plant_Height_cm 1.75   3.99         3.99   26.1   
#>  2 global 1     A      Thickness_mm    0.212  0.00402      2.52    9.57  
#>  3 global 1     A      Wet_Mass_g      0.0107 0.0000517    1.10    1.32  
#>  4 global 1     B      Plant_Height_cm 1.63   3.08         2.39    7.94  
#>  5 global 1     B      Thickness_mm    0.199  0.00171      0.526  -0.0137
#>  6 global 1     B      Wet_Mass_g      0.0118 0.0000461    1.32    2.75  
#>  7 global 1     C      Plant_Height_cm 1.86   3.82         2.71   11.4   
#>  8 global 1     C      Thickness_mm    0.203  0.00223      2.18    9.48  
#>  9 global 1     C      Wet_Mass_g      0.0110 0.0000457    1.83    5.66  
#> 10 global 1     D      Plant_Height_cm 1.88   7.73         4.47   28.8   
#> # … with 8,390 more rows
…
Extracting raw distributions

In traitstrap both the parametric and nonparametric bootstrapping
functions allow returning raw trait distributions.

# run nonparametric bootstrapping
raw_dist_np <- trait_np_bootstrap(
  selected_traits = trait_filling,
  raw = TRUE
)

raw_dist_np
#> # A tibble: 8,400 × 13
#> # Groups:   global, Site, PlotID, Trait [42]
#>    Taxon      Cover Site  PlotID global sum_a…¹ ID    Trait Value n_sam…² weight
#>    <chr>      <dbl> <chr> <chr>  <chr>    <dbl> <chr> <chr> <dbl>   <int>  <dbl>
#>  1 salix pol…    20 1     A      global    38.2 AQT8… Plan…   0.3      22 0.909 
#>  2 salix pol…    20 1     A      global    38.2 BRL7… Plan…   1.3      22 0.909 
#>  3 luzula ni…     1 1     A      global    38.2 BUX4… Plan…   1.8      14 0.0714
#>  4 salix pol…    20 1     A      global    38.2 BRN7… Plan…   1        22 0.909 
#>  5 silene ac…     1 1     A      global    38.2 AUD1… Plan…   1         3 0.333 
#>  6 salix pol…    20 1     A      global    38.2 BRN7… Plan…   1        22 0.909 
#>  7 salix pol…    20 1     A      global    38.2 AXV9… Plan…   0.8      22 0.909 
#>  8 salix pol…    20 1     A      global    38.2 AQT8… Plan…   0.3      22 0.909 
#>  9 salix pol…    20 1     A      global    38.2 ASM7… Plan…   0.8      22 0.909 
#> 10 silene ac…     1 1     A      global    38.2 AUE6… Plan…   0.5       3 0.333 
#> # … with 8,390 more rows, 2 more variables: level <ord>, max_n_in_sample <int>,
#> #   and abbreviated variable names ¹​sum_abun, ²​n_sample
…
